Regresion MIDE
…
hear_disease: Variable binaria que indica si las personas tienen o no
enfermedades cardiacas. ever_married: Variable booleana que indica si la
persona se ha casado alguna vez. work_type: Tipo del trabajo del
paciente, que incluye: Privado, Autoempleado, Gobierno, entre
otros.

avg_glucose_level: Promedio de glucosa en la sangre. bmi: Indice de masa
corporal smoking_status: Estatus de fumador del paciente Stroke_event:
Variable binaria que indica si ha tenido infartos o no.

Importamos los datos y realizamos un análisis descriptivo.

## # A tibble: 30 x 12
##       id gender   age hypertension heart_disease ever_married work_type    
##    <dbl> <chr>  <dbl>        <dbl>         <dbl> <chr>        <chr>        
##  1  9046 Male      67            0             1 Yes          Private      
##  2 51676 Female    61            0             0 Yes          Self-employed
##  3 31112 Male      80            0             1 Yes          Private      
##  4 60182 Female    49            0             0 Yes          Private      
##  5  1665 Female    79            1             0 Yes          Self-employed
##  6 56669 Male      81            0             0 Yes          Private      
##  7 53882 Male      74            1             1 Yes          Private      
##  8 10434 Female    69            0             0 No           Private      
##  9 27419 Female    59            0             0 Yes          Private      
## 10 60491 Female    78            0             0 Yes          Private      
## # ... with 20 more rows, and 5 more variables: Residence_type <chr>,
## #   avg_glucose_level <dbl>, bmi <chr>, smoking_status <chr>, stroke <dbl>
…
